Electronic/simulation/qsim/testForWML.msim.vcd
$comment
	File created using the following command:
		vcd file testForWML.msim.vcd -direction
$end
$date
	Wed May 20 17:11:59 2020
$end
$version
	ModelSim Version 10.5b
$end
$timescale
	1ps
$end

$scope module udc_4b_vhd_vec_tst $end
$var wire 1 ! CL $end
$var wire 1 " PulseIn $end
$var wire 1 # Q [3] $end
$var wire 1 $ Q [2] $end
$var wire 1 % Q [1] $end
$var wire 1 & Q [0] $end
$var wire 1 ' UD $end

$scope module i1 $end
$var wire 1 ( gnd $end
$var wire 1 ) vcc $end
$var wire 1 * unknown $end
$var wire 1 + devoe $end
$var wire 1 , devclrn $end
$var wire 1 - devpor $end
$var wire 1 . ww_devoe $end
$var wire 1 / ww_devclrn $end
$var wire 1 0 ww_devpor $end
$var wire 1 1 ww_CL $end
$var wire 1 2 ww_UD $end
$var wire 1 3 ww_PulseIn $end
$var wire 1 4 ww_Q [3] $end
$var wire 1 5 ww_Q [2] $end
$var wire 1 6 ww_Q [1] $end
$var wire 1 7 ww_Q [0] $end
$var wire 1 8 \~QUARTUS_CREATED_ADC1~_CHSEL_bus\ [4] $end
$var wire 1 9 \~QUARTUS_CREATED_ADC1~_CHSEL_bus\ [3] $end
$var wire 1 : \~QUARTUS_CREATED_ADC1~_CHSEL_bus\ [2] $end
$var wire 1 ; \~QUARTUS_CREATED_ADC1~_CHSEL_bus\ [1] $end
$var wire 1 < \~QUARTUS_CREATED_ADC1~_CHSEL_bus\ [0] $end
$var wire 1 = \~QUARTUS_CREATED_ADC2~_CHSEL_bus\ [4] $end
$var wire 1 > \~QUARTUS_CREATED_ADC2~_CHSEL_bus\ [3] $end
$var wire 1 ? \~QUARTUS_CREATED_ADC2~_CHSEL_bus\ [2] $end
$var wire 1 @ \~QUARTUS_CREATED_ADC2~_CHSEL_bus\ [1] $end
$var wire 1 A \~QUARTUS_CREATED_ADC2~_CHSEL_bus\ [0] $end
$var wire 1 B \CL~inputclkctrl_INCLK_bus\ [3] $end
$var wire 1 C \CL~inputclkctrl_INCLK_bus\ [2] $end
$var wire 1 D \CL~inputclkctrl_INCLK_bus\ [1] $end
$var wire 1 E \CL~inputclkctrl_INCLK_bus\ [0] $end
$var wire 1 F \~QUARTUS_CREATED_GND~I_combout\ $end
$var wire 1 G \~QUARTUS_CREATED_UNVM~~busy\ $end
$var wire 1 H \~QUARTUS_CREATED_ADC1~~eoc\ $end
$var wire 1 I \~QUARTUS_CREATED_ADC2~~eoc\ $end
$var wire 1 J \Q[0]~output_o\ $end
$var wire 1 K \Q[1]~output_o\ $end
$var wire 1 L \Q[2]~output_o\ $end
$var wire 1 M \Q[3]~output_o\ $end
$var wire 1 N \UD~input_o\ $end
$var wire 1 O \PulseIn~input_o\ $end
$var wire 1 P \LP1~3_combout\ $end
$var wire 1 Q \LP1:0:U|TMP~0_combout\ $end
$var wire 1 R \CL~input_o\ $end
$var wire 1 S \CL~inputclkctrl_outclk\ $end
$var wire 1 T \LP1:0:U|TMP~q\ $end
$var wire 1 U \LP1~2_combout\ $end
$var wire 1 V \LP1:1:U|TMP~0_combout\ $end
$var wire 1 W \LP1:1:U|TMP~q\ $end
$var wire 1 X \LP1~1_combout\ $end
$var wire 1 Y \LP1:2:U|TMP~0_combout\ $end
$var wire 1 Z \LP1:2:U|TMP~q\ $end
$var wire 1 [ \LP1~0_combout\ $end
$var wire 1 \ \LP1:3:U|TMP~0_combout\ $end
$var wire 1 ] \LP1:3:U|TMP~q\ $end
$var wire 1 ^ \ALT_INV_CL~inputclkctrl_outclk\ $end
$upscope $end
$upscope $end
$enddefinitions $end
#0
$dumpvars
0!
0"
0'
0(
1)
x*
1+
1,
1-
1.
1/
10
01
02
03
0F
zG
zH
zI
0J
0K
0L
0M
0N
0O
0P
1Q
0R
0S
0T
1U
1V
0W
1X
1Y
0Z
1[
1\
0]
1^
04
05
06
07
1B
1C
1D
0E
08
09
0:
0;
0<
0=
0>
0?
0@
0A
0#
0$
0%
0&
$end
#5000
1"
13
1O
1P
1T
1J
0Q
0U
17
1&
#10000
0"
03
0O
0P
#15000
1"
13
1O
1P
0T
0J
1Q
1U
07
1W
0&
1K
0V
0X
16
1%
#20000
0"
03
0O
0P
#25000
1"
13
1O
1P
1T
1J
0Q
0U
17
1&
#30000
0"
03
0O
0P
#35000
1"
13
1O
1P
0T
0J
1Q
1U
07
0W
0&
0K
1V
1X
06
1Z
0%
1L
0Y
0[
15
1$
#40000
0"
03
0O
0P
#45000
1"
13
1O
1P
1T
1J
0Q
0U
17
1&
#50000
0"
03
0O
0P
#55000
1"
13
1O
1P
0T
0J
1Q
1U
07
1W
0&
1K
0V
0X
16
1%
#60000
0"
03
0O
0P
#65000
1"
13
1O
1P
1T
1J
0Q
0U
17
1&
#70000
0"
03
0O
0P
#75000
1"
13
1O
1P
0T
0J
1Q
1U
07
0W
0&
0K
1V
1X
06
0Z
0%
0L
1Y
1[
05
1]
0$
1M
0\
14
1#
#80000
0"
03
0O
0P
#85000
1"
13
1O
1P
1T
1J
0Q
0U
17
1&
#90000
0"
03
0O
0P
#95000
1"
13
1O
1P
0T
0J
1Q
1U
07
1W
0&
1K
0V
0X
16
1%
#100000
0"
03
0O
0P
#105000
1"
13
1O
1P
1T
1J
0Q
0U
17
1&
#110000
0"
03
0O
0P
#115000
1"
13
1O
1P
0T
0J
1Q
1U
07
0W
0&
0K
1V
1X
06
1Z
0%
1L
0Y
0[
15
1$
#120000
0"
03
0O
0P
#125000
1"
13
1O
1P
1T
1J
0Q
0U
17
1&
#130000
0"
03
0O
0P
#135000
1"
13
1O
1P
0T
0J
1Q
1U
07
1W
0&
1K
0V
0X
16
1%
#140000
0"
03
0O
0P
#145000
1"
13
1O
1P
1T
1J
0Q
0U
17
1&
#150000
0"
03
0O
0P
#155000
1"
13
1O
1P
0T
0J
1Q
1U
07
0W
0&
0K
1V
1X
06
0Z
0%
0L
1Y
1[
05
0]
0$
0M
1\
04
0#
#160000
0"
1'
03
12
1N
0O
0U
0X
0[
#165000
1"
13
1O
0P
#170000
0"
03
0O
1P
1T
1J
0Q
1U
17
1W
1&
1K
0V
1X
16
1Z
1%
1L
0Y
1[
15
1]
1$
1M
0\
14
1#
#175000
1"
13
1O
0P
#180000
0"
03
0O
1P
0T
0J
1Q
0U
07
0&
#185000
1"
13
1O
0P
#190000
0"
03
0O
1P
1T
1J
0Q
1U
17
0W
1&
0K
1V
0X
06
0%
#195000
1"
13
1O
0P
#200000
0"
03
0O
1P
0T
0J
1Q
0U
07
0&
#205000
1"
13
1O
0P
#210000
0"
03
0O
1P
1T
1J
0Q
1U
17
1W
1&
1K
0V
1X
16
0Z
1%
0L
1Y
0[
05
0$
#215000
1"
13
1O
0P
#220000
0"
03
0O
1P
0T
0J
1Q
0U
07
0&
#225000
1"
13
1O
0P
#230000
0"
03
0O
1P
1T
1J
0Q
1U
17
0W
1&
0K
1V
0X
06
0%
#235000
1"
13
1O
0P
#240000
0"
03
0O
1P
0T
0J
1Q
0U
07
0&
#245000
1"
13
1O
0P
#250000
0"
03
0O
1P
1T
1J
0Q
1U
17
1W
1&
1K
0V
1X
16
1Z
1%
1L
0Y
1[
15
0]
1$
0M
1\
04
0#
#255000
1"
13
1O
0P
#260000
0"
03
0O
1P
0T
0J
1Q
0U
07
0&
#265000
1"
13
1O
0P
#270000
0"
03
0O
1P
1T
1J
0Q
1U
17
0W
1&
0K
1V
0X
06
0%
#275000
1"
13
1O
0P
#280000
0"
03
0O
1P
0T
0J
1Q
0U
07
0&
#285000
1"
13
1O
0P
#290000
0"
03
0O
1P
1T
1J
0Q
1U
17
1W
1&
1K
0V
1X
16
0Z
1%
0L
1Y
0[
05
0$
#295000
1"
13
1O
0P
#300000
0"
03
0O
1P
0T
0J
1Q
0U
07
0&
#305000
1"
13
1O
0P
#310000
0"
03
0O
1P
1T
1J
0Q
1U
17
0W
1&
0K
1V
0X
06
0%
#315000
1"
13
1O
0P
#320000
0"
03
0O
1P
0T
0J
1Q
0U
07
0&
#325000
1"
13
1O
0P
#330000
0"
03
0O
1P
1T
1J
0Q
1U
17
1W
1&
1K
0V
1X
16
1Z
1%
1L
0Y
1[
15
1]
1$
1M
0\
14
1#
#335000
1"
13
1O
0P
#340000
0"
03
0O
1P
0T
0J
1Q
0U
07
0&
#345000
1"
13
1O
0P
#350000
0"
03
0O
1P
1T
1J
0Q
1U
17
0W
1&
0K
1V
0X
06
0%
#355000
1"
13
1O
0P
#360000
0"
03
0O
1P
0T
0J
1Q
0U
07
0&
#365000
1"
13
1O
0P
#370000
0"
1!
03
11
1R
0O
1E
1P
1T
1S
1J
0Q
1U
0^
17
0T
0Z
0]
1&
0M
0L
0J
1\
1Y
0[
1Q
0U
04
05
07
0&
0$
0#
#375000
1"
13
1O
0P
#380000
0"
0!
03
01
0R
0O
0E
1P
0S
1^
#385000
1"
13
1O
0P
#390000
0"
03
0O
1P
1T
1J
0Q
1U
17
1W
1&
1K
0V
1X
16
1Z
1%
1L
0Y
1[
15
1]
1$
1M
0\
14
1#
#395000
1"
13
1O
0P
#400000
0"
03
0O
1P
0T
0J
1Q
0U
07
0&
#405000
1"
13
1O
0P
#410000
0"
03
0O
1P
1T
1J
0Q
1U
17
0W
1&
0K
1V
0X
06
0%
#415000
1"
13
1O
0P
#420000
0"
03
0O
1P
0T
0J
1Q
0U
07
0&
#425000
1"
13
1O
0P
#430000
0"
0'
03
02
0N
0O
1U
1X
0[
0Z
1W
1K
0L
0V
0X
1Y
1[
16
05
0]
1%
0$
0M
1\
04
0#
#435000
1"
13
1O
1P
1T
1J
0Q
0U
17
1&
#440000
0"
03
0O
0P
#445000
1"
13
1O
1P
0T
0J
1Q
1U
07
0W
0&
0K
1V
1X
06
1Z
0%
1L
0Y
0[
15
1$
#450000
0"
03
0O
0P
#455000
1"
13
1O
1P
1T
1J
0Q
0U
17
1&
#460000
0"
03
0O
0P
#465000
1"
13
1O
1P
0T
0J
1Q
1U
07
1W
0&
1K
0V
0X
16
1%
#470000
0"
03
0O
0P
#475000
1"
13
1O
1P
1T
1J
0Q
0U
17
1&
#480000
0"
03
0O
0P
#485000
1"
13
1O
1P
0T
0J
1Q
1U
07
0W
0&
0K
1V
1X
06
0Z
0%
0L
1Y
1[
05
1]
0$
1M
0\
14
1#
#490000
0"
03
0O
0P
#495000
1"
13
1O
1P
1T
1J
0Q
0U
17
1&
#500000
0"
03
0O
0P
#505000
1"
13
1O
1P
0T
0J
1Q
1U
07
1W
0&
1K
0V
0X
16
1%
#510000
0"
03
0O
0P
#515000
1"
13
1O
1P
1T
1J
0Q
0U
17
1&
#520000
0"
03
0O
0P
#525000
1"
13
1O
1P
0T
0J
1Q
1U
07
0W
0&
0K
1V
1X
06
1Z
0%
1L
0Y
0[
15
1$
#530000
0"
03
0O
0P
#535000
1"
13
1O
1P
1T
1J
0Q
0U
17
1&
#540000
0"
03
0O
0P
#545000
1"
13
1O
1P
0T
0J
1Q
1U
07
1W
0&
1K
0V
0X
16
1%
#550000
0"
03
0O
0P
#555000
1"
13
1O
1P
1T
1J
0Q
0U
17
1&
#560000
0"
03
0O
0P
#565000
1"
13
1O
1P
0T
0J
1Q
1U
07
0W
0&
0K
1V
1X
06
0Z
0%
0L
1Y
1[
05
0]
0$
0M
1\
04
0#
#570000
0"
03
0O
0P
#575000
1"
13
1O
1P
1T
1J
0Q
0U
17
1&
#580000
0"
03
0O
0P
#585000
1"
13
1O
1P
0T
0J
1Q
1U
07
1W
0&
1K
0V
0X
16
1%
#590000
0"
03
0O
0P
#595000
1"
13
1O
1P
1T
1J
0Q
0U
17
1&
#600000
0"
03
0O
0P
#605000
1"
13
1O
1P
0T
0J
1Q
1U
07
0W
0&
0K
1V
1X
06
1Z
0%
1L
0Y
0[
15
1$
#610000
0"
03
0O
0P
#615000
1"
13
1O
1P
1T
1J
0Q
0U
17
1&
#620000
0"
03
0O
0P
#625000
1"
13
1O
1P
0T
0J
1Q
1U
07
1W
0&
1K
0V
0X
16
1%
#630000
0"
03
0O
0P
#635000
1"
13
1O
1P
1T
1J
0Q
0U
17
1&
#640000
0"
03
0O
0P
#645000
1"
13
1O
1P
0T
0J
1Q
1U
07
0W
0&
0K
1V
1X
06
0Z
0%
0L
1Y
1[
05
1]
0$
1M
0\
14
1#
#650000
0"
03
0O
0P
#655000
1"
13
1O
1P
1T
1J
0Q
0U
17
1&
#660000
0"
03
0O
0P
#665000
1"
13
1O
1P
0T
0J
1Q
1U
07
1W
0&
1K
0V
0X
16
1%
#670000
0"
03
0O
0P
#675000
1"
13
1O
1P
1T
1J
0Q
0U
17
1&
#680000
0"
03
0O
0P
#685000
1"
13
1O
1P
0T
0J
1Q
1U
07
0W
0&
0K
1V
1X
06
1Z
0%
1L
0Y
0[
15
1$
#690000
0"
03
0O
0P
#695000
1"
13
1O
1P
1T
1J
0Q
0U
17
1&
#700000
0"
03
0O
0P
#705000
1"
13
1O
1P
0T
0J
1Q
1U
07
1W
0&
1K
0V
0X
16
1%
#710000
0"
03
0O
0P
#715000
1"
13
1O
1P
1T
1J
0Q
0U
17
1&
#720000
0"
03
0O
0P
#725000
1"
13
1O
1P
0T
0J
1Q
1U
07
0W
0&
0K
1V
1X
06
0Z
0%
0L
1Y
1[
05
0]
0$
0M
1\
04
0#
#730000
0"
03
0O
0P
#735000
1"
13
1O
1P
1T
1J
0Q
0U
17
1&
#740000
0"
03
0O
0P
#745000
1"
13
1O
1P
0T
0J
1Q
1U
07
1W
0&
1K
0V
0X
16
1%
#750000
0"
03
0O
0P
#755000
1"
13
1O
1P
1T
1J
0Q
0U
17
1&
#760000
0"
03
0O
0P
#765000
1"
13
1O
1P
0T
0J
1Q
1U
07
0W
0&
0K
1V
1X
06
1Z
0%
1L
0Y
0[
15
1$
#770000
0"
03
0O
0P
#775000
1"
13
1O
1P
1T
1J
0Q
0U
17
1&
#780000
0"
03
0O
0P
#785000
1"
13
1O
1P
0T
0J
1Q
1U
07
1W
0&
1K
0V
0X
16
1%
#790000
0"
03
0O
0P
#795000
1"
13
1O
1P
1T
1J
0Q
0U
17
1&
#800000
0"
03
0O
0P
#805000
1"
13
1O
1P
0T
0J
1Q
1U
07
0W
0&
0K
1V
1X
06
0Z
0%
0L
1Y
1[
05
1]
0$
1M
0\
14
1#
#810000
0"
03
0O
0P
#815000
1"
13
1O
1P
1T
1J
0Q
0U
17
1&
#820000
0"
03
0O
0P
#825000
1"
13
1O
1P
0T
0J
1Q
1U
07
1W
0&
1K
0V
0X
16
1%
#830000
0"
03
0O
0P
#835000
1"
13
1O
1P
1T
1J
0Q
0U
17
1&
#840000
0"
03
0O
0P
#845000
1"
13
1O
1P
0T
0J
1Q
1U
07
0W
0&
0K
1V
1X
06
1Z
0%
1L
0Y
0[
15
1$
#850000
0"
03
0O
0P
#855000
1"
13
1O
1P
1T
1J
0Q
0U
17
1&
#860000
0"
03
0O
0P
#865000
1"
13
1O
1P
0T
0J
1Q
1U
07
1W
0&
1K
0V
0X
16
1%
#870000
0"
03
0O
0P
#875000
1"
13
1O
1P
1T
1J
0Q
0U
17
1&
#880000
0"
03
0O
0P
#885000
1"
13
1O
1P
0T
0J
1Q
1U
07
0W
0&
0K
1V
1X
06
0Z
0%
0L
1Y
1[
05
0]
0$
0M
1\
04
0#
#890000
0"
03
0O
0P
#895000
1"
13
1O
1P
1T
1J
0Q
0U
17
1&
#900000
0"
03
0O
0P
#905000
1"
13
1O
1P
0T
0J
1Q
1U
07
1W
0&
1K
0V
0X
16
1%
#910000
0"
03
0O
0P
#915000
1"
13
1O
1P
1T
1J
0Q
0U
17
1&
#920000
0"
03
0O
0P
#925000
1"
13
1O
1P
0T
0J
1Q
1U
07
0W
0&
0K
1V
1X
06
1Z
0%
1L
0Y
0[
15
1$
#930000
0"
03
0O
0P
#935000
1"
13
1O
1P
1T
1J
0Q
0U
17
1&
#940000
0"
03
0O
0P
#945000
1"
13
1O
1P
0T
0J
1Q
1U
07
1W
0&
1K
0V
0X
16
1%
#950000
0"
03
0O
0P
#955000
1"
13
1O
1P
1T
1J
0Q
0U
17
1&
#960000
0"
03
0O
0P
#965000
1"
13
1O
1P
0T
0J
1Q
1U
07
0W
0&
0K
1V
1X
06
0Z
0%
0L
1Y
1[
05
1]
0$
1M
0\
14
1#
#970000
0"
03
0O
0P
#975000
1"
13
1O
1P
1T
1J
0Q
0U
17
1&
#980000
0"
03
0O
0P
#985000
1"
13
1O
1P
0T
0J
1Q
1U
07
1W
0&
1K
0V
0X
16
1%
#990000
0"
03
0O
0P
#995000
1"
13
1O
1P
1T
1J
0Q
0U
17
1&
